Removed Pin From Net: NetName=+9V Pin=C1-1
Removed Pin From Net: NetName=GND Pin=C1-2
Removed Pin From Net: NetName=+9V Pin=C2-1
Removed Pin From Net: NetName=GND Pin=C2-2
Removed Pin From Net: NetName=GND Pin=C3-2
Removed Pin From Net: NetName=-9V Pin=C4-1
Removed Pin From Net: NetName=GND Pin=C4-2
Removed Pin From Net: NetName=GND Pin=C5-1
Removed Pin From Net: NetName=-9V Pin=C6-1
Removed Pin From Net: NetName=GND Pin=C6-2
Removed Pin From Net: NetName=GND Pin=C7-1
Removed Pin From Net: NetName=GND Pin=C10-2
Removed Pin From Net: NetName=GND Pin=C12-1
Removed Pin From Net: NetName=+9V Pin=C13-1
Removed Pin From Net: NetName=GND Pin=C13-2
Removed Pin From Net: NetName=-9V Pin=C15-1
Removed Pin From Net: NetName=GND Pin=C15-2
Removed Pin From Net: NetName=GND Pin=C16-1
Removed Pin From Net: NetName=GND Pin=C17-1
Removed Pin From Net: NetName=GND Pin=C18-2
Removed Pin From Net: NetName=+9V Pin=C19-1
Removed Pin From Net: NetName=GND Pin=C19-2
Removed Pin From Net: NetName=-9V Pin=C20-1
Removed Pin From Net: NetName=GND Pin=C20-2
Removed Pin From Net: NetName=GND Pin=C21-1
Removed Pin From Net: NetName=GND Pin=C22-2
Removed Pin From Net: NetName=+9V Pin=C23-1
Removed Pin From Net: NetName=GND Pin=C23-2
Removed Pin From Net: NetName=-9V Pin=C24-1
Removed Pin From Net: NetName=GND Pin=C24-2
Removed Pin From Net: NetName=GND Pin=C26-2
Removed Pin From Net: NetName=GND Pin=C27-2
Removed Pin From Net: NetName=GND Pin=K1-2
Removed Pin From Net: NetName=WE Pin=K1-4
Removed Pin From Net: NetName=GND Pin=K2-2
Removed Pin From Net: NetName=GND Pin=K2-4
Removed Pin From Net: NetName=GND Pin=K3-2
Removed Pin From Net: NetName=GND Pin=K3-4
Removed Pin From Net: NetName=GND Pin=K4-2
Removed Pin From Net: NetName=GND Pin=K4-4
Removed Pin From Net: NetName=5VA Pin=R1-2
Removed Pin From Net: NetName=5VA Pin=R6-1
Removed Pin From Net: NetName=5VA Pin=R11-1
Removed Pin From Net: NetName=GND Pin=R24-1
Removed Pin From Net: NetName=GND Pin=R25-1
Removed Pin From Net: NetName=CE Pin=R26-1
Removed Pin From Net: NetName=CE Pin=R27-1
Removed Pin From Net: NetName=CE Pin=R28-1
Removed Pin From Net: NetName=5VA Pin=R29-2
Removed Pin From Net: NetName=GND Pin=R30-2
Removed Pin From Net: NetName=GND Pin=U1-4
Removed Pin From Net: NetName=GND Pin=U1-13
Removed Pin From Net: NetName=CS_DAC Pin=U1-14
Removed Pin From Net: NetName=SPI_DAC Pin=U1-15
Removed Pin From Net: NetName=SCK Pin=U1-16
Removed Pin From Net: NetName=-9V Pin=U2-3
Removed Pin From Net: NetName=+9V Pin=U2-5
Removed Pin From Net: NetName=+9V Pin=U4-4
Removed Pin From Net: NetName=-9V Pin=U4-7
Removed Pin From Net: NetName=+9V Pin=U5-4
Removed Pin From Net: NetName=SE Pin=U5-5
Removed Pin From Net: NetName=-9V Pin=U5-11
Removed Pin From Net: NetName=RE Pin=U5-12
Removed Pin From Net: NetName=GND Pin=U6-4
Removed Pin From Net: NetName=SCK Pin=U6-5
Removed Pin From Net: NetName=SPI_ADC_1 Pin=U6-6
Removed Pin From Net: NetName=CS_ADC Pin=U6-7
Removed Pin From Net: NetName=GND Pin=U7-4
Removed Pin From Net: NetName=SCK Pin=U7-5
Removed Pin From Net: NetName=SPI_ADC_2 Pin=U7-6
Removed Pin From Net: NetName=CS_ADC Pin=U7-7
Removed Pin From Net: NetName=CE Pin=U8-3
Removed Pin From Net: NetName=+9V Pin=U8-4
Removed Pin From Net: NetName=-9V Pin=U8-11
Removed Pin From Net: NetName=GND Pin=U9-4
Removed Member From Class: ClassName=OPES Member=C1
Removed Member From Class: ClassName=OPES Member=C2
Removed Member From Class: ClassName=OPES Member=C3
Removed Member From Class: ClassName=OPES Member=C4
Removed Member From Class: ClassName=OPES Member=C5
Removed Member From Class: ClassName=OPES Member=C6
Removed Member From Class: ClassName=OPES Member=C7
Removed Member From Class: ClassName=OPES Member=C8
Removed Member From Class: ClassName=OPES Member=C9
Removed Member From Class: ClassName=OPES Member=C10
Removed Member From Class: ClassName=OPES Member=C11
Removed Member From Class: ClassName=OPES Member=C12
Removed Member From Class: ClassName=OPES Member=C13
Removed Member From Class: ClassName=OPES Member=C14
Removed Member From Class: ClassName=OPES Member=C15
Removed Member From Class: ClassName=OPES Member=C16
Removed Member From Class: ClassName=OPES Member=C17
Removed Member From Class: ClassName=OPES Member=C18
Removed Member From Class: ClassName=OPES Member=C19
Removed Member From Class: ClassName=OPES Member=C20
Removed Member From Class: ClassName=OPES Member=C21
Removed Member From Class: ClassName=OPES Member=C22
Removed Member From Class: ClassName=OPES Member=C23
Removed Member From Class: ClassName=OPES Member=C24
Removed Member From Class: ClassName=OPES Member=C25
Removed Member From Class: ClassName=OPES Member=C26
Removed Member From Class: ClassName=OPES Member=C27
Removed Member From Class: ClassName=OPES Member=K1
Removed Member From Class: ClassName=OPES Member=K2
Removed Member From Class: ClassName=OPES Member=K3
Removed Member From Class: ClassName=OPES Member=K4
Removed Member From Class: ClassName=OPES Member=R1
Removed Member From Class: ClassName=OPES Member=R2
Removed Member From Class: ClassName=OPES Member=R3
Removed Member From Class: ClassName=OPES Member=R4
Removed Member From Class: ClassName=OPES Member=R5
Removed Member From Class: ClassName=OPES Member=R6
Removed Member From Class: ClassName=OPES Member=R7
Removed Member From Class: ClassName=OPES Member=R8
Removed Member From Class: ClassName=OPES Member=R9
Removed Member From Class: ClassName=OPES Member=R10
Removed Member From Class: ClassName=OPES Member=R11
Removed Member From Class: ClassName=OPES Member=R12
Removed Member From Class: ClassName=OPES Member=R13
Removed Member From Class: ClassName=OPES Member=R20
Removed Member From Class: ClassName=OPES Member=R21
Removed Member From Class: ClassName=OPES Member=R22
Removed Member From Class: ClassName=OPES Member=R23
Removed Member From Class: ClassName=OPES Member=R24
Removed Member From Class: ClassName=OPES Member=R25
Removed Member From Class: ClassName=OPES Member=R26
Removed Member From Class: ClassName=OPES Member=R27
Removed Member From Class: ClassName=OPES Member=R28
Removed Member From Class: ClassName=OPES Member=R29
Removed Member From Class: ClassName=OPES Member=R30
Removed Member From Class: ClassName=OPES Member=U1
Removed Member From Class: ClassName=OPES Member=U2
Removed Member From Class: ClassName=OPES Member=U3
Removed Member From Class: ClassName=OPES Member=U4
Removed Member From Class: ClassName=OPES Member=U5
Removed Member From Class: ClassName=OPES Member=U6
Removed Member From Class: ClassName=OPES Member=U7
Removed Member From Class: ClassName=OPES Member=U8
Removed Member From Class: ClassName=OPES Member=U9
Change Class Name : Old Net Name=OPES New Net Name=AD5933
